<?xml version="1.0" encoding="UTF-8"?>
<svg width="45px" height="32px" viewBox="0 0 45 32" version="1.1" xmlns="http://www.w3.org/2000/svg" xmlns:xlink="http://www.w3.org/1999/xlink">
    <!-- Generator: Sketch 53.2 (72643) - https://sketchapp.com -->
    <title>HEAVY DOUBLE TURNED COMMA QUOTATION MARK ORNAMENT</title>
    <desc>Created with Sketch.</desc>
    <g id="iconos" stroke="none" stroke-width="1" fill="none" fill-rule="evenodd">
        <g transform="translate(-405.000000, -648.000000)" fill="#F79C4D" id="HEAVY-DOUBLE-TURNED-COMMA-QUOTATION-MARK-ORNAMENT">
            <g transform="translate(404.000000, 648.000000)">
                <path d="M22.6821164,16.0611093 C23.2261446,11.5359637 25.0984391,7.93111784 28.299,5.246 C32.154,2.012 37.621,0.395 44.699,0.395 L45.051,0.395 L45.051,2.047 L44.91,2.047 C40.105,2.047 36.262,2.779 33.379,4.244 C30.496,5.709 29.055,7.613 29.055,9.957 C29.055,10.731 29.213,11.287 29.529,11.627 C29.846,11.967 30.367,12.137 31.094,12.137 C31.445,12.137 32.201,11.99 33.361,11.697 C34.521,11.404 35.465,11.258 36.191,11.258 C38.769,11.258 40.972,12.236 42.801,14.193 C44.629,16.151 45.543,18.512 45.543,21.277 C45.543,24.488 44.5,27.078 42.414,29.047 C40.328,31.016 37.586,32 34.187,32 C30.625,32 27.789,30.828 25.68,28.484 C24.7502003,27.4515258 24.025265,26.2572961 23.505194,24.9013966 C23.0011491,26.5005171 22.1322178,27.8823848 20.8984,29.047 C18.8124,31.016 16.0704,32 12.6714,32 C9.1094,32 6.2734,30.828 4.1644,28.484 C2.0544,26.141 0.9994,22.965 0.9994,18.957 C0.9994,13.051 2.9284,8.481 6.7834,5.246 C10.6394,2.012 16.1054,0.395 23.1834,0.395 L23.5354,0.395 L23.5354,2.047 L23.3944,2.047 C18.5894,2.047 14.7464,2.779 11.8634,4.244 C8.9804,5.709 7.5394,7.613 7.5394,9.957 C7.5394,10.731 7.6974,11.287 8.0134,11.627 C8.3304,11.967 8.8524,12.137 9.5784,12.137 C9.9294,12.137 10.6854,11.99 11.8454,11.697 C13.0054,11.404 13.9494,11.258 14.6754,11.258 C17.2534,11.258 19.4564,12.236 21.2854,14.193 C21.832989,14.7795313 22.2985611,15.4022255 22.6821164,16.0611093 Z" id="Fill-4"></path>
            </g>
        </g>
    </g>
</svg>