<?xml version="1.0" encoding="UTF-8"?>
<svg width="18px" height="18px" viewBox="0 0 18 18" version="1.1" xmlns="http://www.w3.org/2000/svg" xmlns:xlink="http://www.w3.org/1999/xlink">
    <!-- Generator: Sketch 53.2 (72643) - https://sketchapp.com -->
    <title>search 18x18 gray</title>
    <desc>Created with Sketch.</desc>
    <g id="iconos" stroke="none" stroke-width="1" fill="none" fill-rule="evenodd">
        <g transform="translate(-563.000000, -468.000000)" fill="#4F5A7D" fill-rule="nonzero" id="search-18x18-gray">
            <g transform="translate(563.000000, 468.000000)">
                <path d="M17.8421053,16.8982456 L13.3157895,12.3719298 C13.2350877,12.2912281 13.1298246,12.2491228 13.0175439,12.2491228 L12.6561404,12.2491228 C13.8596491,10.9473684 14.5964912,9.21052632 14.5964912,7.29824561 C14.5964912,3.26666667 11.3298246,0 7.29824561,0 C3.26666667,0 0,3.26666667 0,7.29824561 C0,11.3298246 3.26666667,14.5964912 7.29824561,14.5964912 C9.21052632,14.5964912 10.9473684,13.8596491 12.2491228,12.6596491 L12.2491228,13.0175439 C12.2491228,13.1298246 12.2947368,13.2350877 12.3719298,13.3157895 L16.8982456,17.8421053 C17.0631579,18.0070175 17.3298246,18.0070175 17.4947368,17.8421053 L17.8421053,17.4947368 C18.0070175,17.3298246 18.0070175,17.0631579 17.8421053,16.8982456 Z M7.29824561,13.4736842 C3.88421053,13.4736842 1.12280702,10.7122807 1.12280702,7.29824561 C1.12280702,3.88421053 3.88421053,1.12280702 7.29824561,1.12280702 C10.7122807,1.12280702 13.4736842,3.88421053 13.4736842,7.29824561 C13.4736842,10.7122807 10.7122807,13.4736842 7.29824561,13.4736842 Z" id="Shape"></path>
            </g>
        </g>
    </g>
</svg>